1 10 20
100 200 125
201 210 89
900 1000 174
69 420 144
1000 2000 182
605293 606510 341
956739 956006 352
826611 825983 313
756134 756776 362
478642 479101 338
100 200000 383
10 1 20
200 100 125
210 201 89
1 1 1
10 23 21
3284 32433 308
12 2342 183
21 323 131
213 988 179
199 4392 238
4444 222 238
2139 3489 217
123 3843 238
8999 10000 260
9999 10000 92
10000 11000 268
10000 12000 268
5554 32444 308
9921 99122 351
930036 929896 264
982165 982843 383
806280 806281 70
379341 379868 361
155281 158691 383
854261 855194 357
827665 827456 419
806029 805322 375
276791 280194 389
655238 655329 292
358577 358839 348
842747 844169 388
612687 612358 297
810273 809602 344
431700 431055 312
281758 283365 358
984263 984008 352
884741 885879 370
724852 724070 362
869222 869573 388
340 3000 217
3000 340 217
500 101 144
25 40 112
450 600 142
2 2 2
3 3 8
4 4 3
5 10 20
10 5 20
640 690 145
560 560 18
9782 32843 308
12 13 10
583 121 144
3243 23 217
2133 321 182
5654 435 238
43435 3333 324
6590 6509 213
144 169 117
430 200 144
2021 2290 183
13245 234 268
678 9090 262
7453 152 262
52 231 128
7810 4248 262
9991 9994 180
90007 80000 333
6332 1353 262
210 4187 238
4013 337 238
282 753 171
8258 6925 257
2610 13 209
56 2657 209
6044 557 238
8994 5394 262
980 928 174
209 12 125
2899 567 209
78 556 144
4307 948 238
389 122 144
324 392 144
987 456 179
123 765 171
381 3432 217
2324 4345 238
2947 2856 217
385493 383822 348
1008 108 179
1008 1008 112
108 108 114
1008 1009 112
108 1008 179
