............
----------------------------------------------------------------------
Ran 12 tests in 108.000s

OK
Name             Stmts   Miss Branch BrPart  Cover   Missing
------------------------------------------------------------
Collatz.py          37      0     14      0   100%
TestCollatz.py      51      0      0      0   100%
------------------------------------------------------------
TOTAL               88      0     14      0   100% 
