............
----------------------------------------------------------------------
Ran 12 tests in 5.513s

OK
Name             Stmts   Miss Branch BrPart  Cover   Missing
------------------------------------------------------------
Collatz.py          29      0     14      0   100%
TestCollatz.py      47      0      0      0   100%
------------------------------------------------------------
TOTAL               76      0     14      0   100%
